[
    {
    "id": 1,
    "first_name": "Hans",
    "last_name" : "Niemann",
    "elo_points": 1882
    },
    {
    "id": 2,
    "first_name": "Anish",
    "last_name" : "Giri",
    "elo_points": 2547
    },
    {
    "id": 3,
    "first_name": "Anna",
    "last_name" : "Cramling",
    "elo_points": 2235
    },
    {
    "id": 4,
    "first_name": "Magnus",
    "last_name" : "Carlsen",
    "elo_points": 2878
    },
    {
    "id": 5,
    "first_name": "Hikaru",
    "last_name" : "Nakamura",
    "elo_points": 2659
    },
    {
    "id": 6,
    "first_name": "Dina",
    "last_name" : "Belenkaya",
    "elo_points": 2456
    }
]